{
  "schemaVersion": 1,
  "id": "zens-dynamic-villagers",
  "version": "${version}",
  "name": "Zen's Dynamic Villagers",
  "description": "My rework of the villager trading system.",
  "authors": ["Me!"],
  "contact": {
    "homepage": "https://fabricmc.net/",
    "sources": "https://github.com/FabricMC/fabric-example-mod"
  },
  "license": "Mozilla Public License 2.0",
  "icon": "assets/zens-dynamic-villagers/icon.png",
  "environment": "*",
  "entrypoints": {
    "main": ["io.github.offbeat_stuff.zens_dynamic_villagers.VillagerMod"]
  },
  "mixins": ["zens-dynamic-villagers.mixins.json"],
  "depends": {
    "fabricloader": ">=0.14.21",
    "minecraft": "~1.20.1",
    "java": ">=17"
  }
}
